{
    "rows": [
       {
    "id": "4568933",
    "shopTitle": "SHOW工坊专业美发用品",
   "pictUrl": "http://img3.tbcdn.cn/tfscom/i1/57579855/TB29EBscSBjpuFjSsplXXa5MVXa_!!57579855.jpg",
    "title": "【天天特价】正品德国原装歌薇染膏染发剂盖白发专用染发植物染发",
    "couponInfo": "3",
    "zkFinalPrice": "65.00",
    "couponStartTime": "2017-07-18",
    "couponClickUrl":"https://detail.tmall.com/item.htm?spm=a220m.1000858.1000725.36.4a048865ZkAAx8&id=562540267614&skuId=4611700717166&user_id=217101303&cat_id=2&is_b=1&rn=7776e47e68d7a0107501ebfb22f8954d"
}
    ],
    "attach": null,
    "firstResult": 0,
    "pageSize": 10,
    "lastPage": false,
    "totalPage": 1073,
    "nextPage": 2,
    "pageNo": 1,
    "firstPage": true,
    "previousPage": 1,
    "totalCount": 10726
}